<svg width="256" height="256" viewBox="0 0 256 256" fill="none" xmlns="http://www.w3.org/2000/svg">
<rect width="255.573" height="256" rx="15" fill="url(#paint0_linear)"/>
<path d="M218 128C218 178.343 177.621 219 128 219C78.3794 219 38 178.343 38 128C38 77.6566 78.3794 37 128 37C177.621 37 218 77.6566 218 128Z" stroke="white" stroke-width="18"/>
<path d="M95.3588 65.88H108.175L125.887 117H111.631L108.535 106.992H94.9268L91.9028 117H77.5747L95.3588 65.88ZM106.303 97.632L101.767 81.792L97.0148 97.632H106.303ZM130.134 117V65.88H149.79C154.014 65.88 157.734 66.552 160.95 67.896C164.166 69.24 166.854 71.064 169.014 73.368C171.174 75.672 172.806 78.384 173.91 81.504C175.014 84.576 175.566 87.864 175.566 91.368C175.566 95.256 174.942 98.784 173.694 101.952C172.494 105.072 170.766 107.76 168.51 110.016C166.254 112.224 163.542 113.952 160.374 115.2C157.206 116.4 153.678 117 149.79 117H130.134ZM161.31 91.368C161.31 89.4 161.046 87.6 160.518 85.968C159.99 84.336 159.222 82.944 158.214 81.792C157.254 80.64 156.054 79.752 154.614 79.128C153.174 78.456 151.566 78.12 149.79 78.12H144.174V104.76H149.79C151.614 104.76 153.246 104.424 154.686 103.752C156.126 103.08 157.326 102.144 158.286 100.944C159.294 99.744 160.038 98.328 160.518 96.696C161.046 95.064 161.31 93.288 161.31 91.368ZM101.263 172V145.072L92.695 164.008H85.207L76.639 145.072V172H62.599V120.88H77.935L88.951 144.928L100.039 120.88H115.303V172H101.263ZM124.052 172V120.88H138.092V172H124.052ZM160.944 146.872V172H146.904V120.88H157.848L178.368 146.872V120.88H192.408V172H181.248L160.944 146.872Z" fill="white"/>
<path d="M107.88 175.96H108.88V174.96H107.88V175.96ZM107.88 193V194H108.88V193H107.88ZM103.2 193H102.2V194H103.2V193ZM103.2 186.328H104.2V185.328H103.2V186.328ZM97.4878 186.328V185.328H96.4878V186.328H97.4878ZM97.4878 193V194H98.4878V193H97.4878ZM92.8078 193H91.8078V194H92.8078V193ZM92.8078 175.96V174.96H91.8078V175.96H92.8078ZM97.4878 175.96H98.4878V174.96H97.4878V175.96ZM97.4878 182.248H96.4878V183.248H97.4878V182.248ZM103.2 182.248V183.248H104.2V182.248H103.2ZM103.2 175.96V174.96H102.2V175.96H103.2ZM106.88 175.96V193H108.88V175.96H106.88ZM107.88 192H103.2V194H107.88V192ZM104.2 193V186.328H102.2V193H104.2ZM103.2 185.328H97.4878V187.328H103.2V185.328ZM96.4878 186.328V193H98.4878V186.328H96.4878ZM97.4878 192H92.8078V194H97.4878V192ZM93.8078 193V175.96H91.8078V193H93.8078ZM92.8078 176.96H97.4878V174.96H92.8078V176.96ZM96.4878 175.96V182.248H98.4878V175.96H96.4878ZM97.4878 183.248H103.2V181.248H97.4878V183.248ZM104.2 182.248V175.96H102.2V182.248H104.2ZM103.2 176.96H107.88V174.96H103.2V176.96ZM110.808 193H109.808V194H110.808V193ZM110.808 175.96V174.96H109.808V175.96H110.808ZM115.488 175.96H116.488V174.96H115.488V175.96ZM115.488 193V194H116.488V193H115.488ZM111.808 193V175.96H109.808V193H111.808ZM110.808 176.96H115.488V174.96H110.808V176.96ZM114.488 175.96V193H116.488V175.96H114.488ZM115.488 192H110.808V194H115.488V192ZM118.425 193H117.425V194H118.425V193ZM118.425 175.96V174.96H117.425V175.96H118.425ZM128.697 176.632L128.311 177.555L128.311 177.555L128.697 176.632ZM131.385 178.456L130.655 179.14L130.655 179.14L131.385 178.456ZM133.017 181.168L132.074 181.502L132.076 181.506L133.017 181.168ZM132.945 187.984L132.014 187.617L132.012 187.625L132.945 187.984ZM131.217 190.672L131.916 191.387L131.924 191.379L131.217 190.672ZM128.505 192.4L128.859 193.335L128.871 193.33L128.505 192.4ZM128.553 182.656L127.601 182.964L127.601 182.964L128.553 182.656ZM127.785 181.264L127.017 181.904L127.024 181.913L127.032 181.923L127.785 181.264ZM126.585 180.376L126.162 181.282L126.175 181.288L126.187 181.294L126.585 180.376ZM123.105 180.04V179.04H122.105V180.04H123.105ZM123.105 188.92H122.105V189.92H123.105V188.92ZM126.609 188.584L126.186 187.678L126.186 187.678L126.609 188.584ZM127.809 187.648L127.043 187.005L127.036 187.014L127.028 187.023L127.809 187.648ZM128.553 186.232L127.601 185.924L127.597 185.937L127.594 185.95L128.553 186.232ZM119.425 193V175.96H117.425V193H119.425ZM118.425 176.96H124.977V174.96H118.425V176.96ZM124.977 176.96C126.28 176.96 127.384 177.167 128.311 177.555L129.083 175.709C127.865 175.201 126.49 174.96 124.977 174.96V176.96ZM128.311 177.555C129.267 177.954 130.042 178.485 130.655 179.14L132.114 177.772C131.288 176.891 130.271 176.206 129.083 175.709L128.311 177.555ZM130.655 179.14C131.276 179.802 131.75 180.585 132.074 181.502L133.96 180.834C133.548 179.671 132.933 178.646 132.114 177.772L130.655 179.14ZM132.076 181.506C132.402 182.414 132.569 183.395 132.569 184.456H134.569C134.569 183.181 134.368 181.97 133.958 180.83L132.076 181.506ZM132.569 184.456C132.569 185.644 132.378 186.694 132.015 187.617L133.875 188.351C134.343 187.162 134.569 185.86 134.569 184.456H132.569ZM132.012 187.625C131.659 188.541 131.158 189.317 130.51 189.965L131.924 191.379C132.78 190.523 133.431 189.507 133.878 188.343L132.012 187.625ZM130.517 189.957C129.868 190.593 129.08 191.099 128.138 191.47L128.871 193.33C130.042 192.869 131.062 192.223 131.916 191.387L130.517 189.957ZM128.151 191.465C127.223 191.816 126.17 192 124.977 192V194C126.376 194 127.675 193.784 128.859 193.335L128.151 191.465ZM124.977 192H118.425V194H124.977V192ZM129.817 184.456C129.817 183.711 129.717 183.005 129.504 182.348L127.601 182.964C127.741 183.395 127.817 183.889 127.817 184.456H129.817ZM129.504 182.348C129.292 181.691 128.973 181.103 128.538 180.605L127.032 181.923C127.269 182.193 127.462 182.533 127.601 182.964L129.504 182.348ZM128.553 180.624C128.128 180.114 127.599 179.726 126.983 179.458L126.187 181.294C126.531 181.442 126.802 181.646 127.017 181.904L128.553 180.624ZM127.008 179.47C126.381 179.177 125.698 179.04 124.977 179.04V181.04C125.44 181.04 125.829 181.127 126.162 181.282L127.008 179.47ZM124.977 179.04H123.105V181.04H124.977V179.04ZM122.105 180.04V188.92H124.105V180.04H122.105ZM123.105 189.92H124.977V187.92H123.105V189.92ZM124.977 189.92C125.709 189.92 126.401 189.784 127.032 189.49L126.186 187.678C125.857 187.832 125.46 187.92 124.977 187.92V189.92ZM127.032 189.49C127.646 189.203 128.17 188.797 128.59 188.273L127.028 187.023C126.807 187.299 126.532 187.517 126.186 187.678L127.032 189.49ZM128.575 188.291C129.007 187.777 129.317 187.179 129.512 186.514L127.594 185.95C127.469 186.373 127.283 186.719 127.043 187.005L128.575 188.291ZM129.504 186.54C129.716 185.885 129.817 185.188 129.817 184.456H127.817C127.817 185.004 127.742 185.491 127.601 185.924L129.504 186.54ZM147.749 188.92H148.749V187.92H147.749V188.92ZM147.749 193V194H148.749V193H147.749ZM135.605 193H134.605V194H135.605V193ZM135.605 175.96V174.96H134.605V175.96H135.605ZM147.533 175.96H148.533V174.96H147.533V175.96ZM147.533 180.04V181.04H148.533V180.04H147.533ZM140.285 180.04V179.04H139.285V180.04H140.285ZM140.285 182.44H139.285V183.44H140.285V182.44ZM146.477 182.44H147.477V181.44H146.477V182.44ZM146.477 186.232V187.232H147.477V186.232H146.477ZM140.285 186.232V185.232H139.285V186.232H140.285ZM140.285 188.92H139.285V189.92H140.285V188.92ZM146.749 188.92V193H148.749V188.92H146.749ZM147.749 192H135.605V194H147.749V192ZM136.605 193V175.96H134.605V193H136.605ZM135.605 176.96H147.533V174.96H135.605V176.96ZM146.533 175.96V180.04H148.533V175.96H146.533ZM147.533 179.04H140.285V181.04H147.533V179.04ZM139.285 180.04V182.44H141.285V180.04H139.285ZM140.285 183.44H146.477V181.44H140.285V183.44ZM145.477 182.44V186.232H147.477V182.44H145.477ZM146.477 185.232H140.285V187.232H146.477V185.232ZM139.285 186.232V188.92H141.285V186.232H139.285ZM140.285 189.92H147.749V187.92H140.285V189.92ZM149.925 193H148.925V194H149.925V193ZM149.925 175.96V174.96H148.925V175.96H149.925ZM160.053 176.488L159.606 177.382L159.614 177.387L159.622 177.39L160.053 176.488ZM161.853 177.832L161.104 178.495L161.114 178.506L161.125 178.517L161.853 177.832ZM163.053 179.728L162.124 180.099L162.127 180.107L163.053 179.728ZM162.837 184.648L163.728 185.102L163.731 185.095L162.837 184.648ZM161.037 186.736L160.459 185.92L159.717 186.446L160.17 187.234L161.037 186.736ZM164.637 193V194H166.365L165.504 192.502L164.637 193ZM159.357 193L158.489 193.497L158.778 194H159.357V193ZM156.357 187.768L157.224 187.271L156.936 186.768H156.357V187.768ZM154.605 187.768V186.768H153.605V187.768H154.605ZM154.605 193V194H155.605V193H154.605ZM154.605 183.688H153.605V184.688H154.605V183.688ZM158.349 183.208L157.568 182.583L157.558 182.596L157.549 182.608L158.349 183.208ZM158.301 180.52L157.558 181.189L157.566 181.198L157.575 181.208L158.301 180.52ZM154.605 180.04V179.04H153.605V180.04H154.605ZM150.925 193V175.96H148.925V193H150.925ZM149.925 176.96H157.749V174.96H149.925V176.96ZM157.749 176.96C158.435 176.96 159.048 177.104 159.606 177.382L160.5 175.594C159.649 175.168 158.727 174.96 157.749 174.96V176.96ZM159.622 177.39C160.211 177.671 160.701 178.04 161.104 178.495L162.602 177.169C162.013 176.504 161.303 175.977 160.484 175.586L159.622 177.39ZM161.125 178.517C161.548 178.967 161.881 179.491 162.124 180.099L163.981 179.357C163.649 178.525 163.182 177.785 162.581 177.147L161.125 178.517ZM162.127 180.107C162.369 180.697 162.485 181.281 162.485 181.864H164.485C164.485 181.007 164.313 180.167 163.978 179.349L162.127 180.107ZM162.485 181.864C162.485 182.705 162.303 183.479 161.943 184.201L163.731 185.095C164.235 184.089 164.485 183.007 164.485 181.864H162.485ZM161.946 184.194C161.587 184.9 161.093 185.471 160.459 185.92L161.615 187.552C162.517 186.913 163.223 186.092 163.728 185.102L161.946 184.194ZM160.17 187.234L163.77 193.498L165.504 192.502L161.904 186.238L160.17 187.234ZM164.637 192H159.357V194H164.637V192ZM160.224 192.503L157.224 187.271L155.489 188.265L158.489 193.497L160.224 192.503ZM156.357 186.768H154.605V188.768H156.357V186.768ZM153.605 187.768V193H155.605V187.768H153.605ZM154.605 192H149.925V194H154.605V192ZM154.605 184.688H157.557V182.688H154.605V184.688ZM157.557 184.688C158.271 184.688 158.799 184.275 159.149 183.808L157.549 182.608C157.484 182.695 157.448 182.715 157.453 182.713C157.456 182.711 157.469 182.704 157.49 182.698C157.512 182.691 157.535 182.688 157.557 182.688V184.688ZM159.13 183.833C159.575 183.276 159.733 182.577 159.733 181.864H157.733C157.733 182.303 157.634 182.5 157.568 182.583L159.13 183.833ZM159.733 181.864C159.733 181.122 159.552 180.387 159.027 179.832L157.575 181.208C157.626 181.261 157.733 181.422 157.733 181.864H159.733ZM159.044 179.851C158.661 179.425 158.124 179.04 157.437 179.04V181.04C157.388 181.04 157.366 181.025 157.383 181.034C157.406 181.047 157.466 181.087 157.558 181.189L159.044 179.851ZM157.437 179.04H154.605V181.04H157.437V179.04ZM153.605 180.04V183.688H155.605V180.04H153.605Z" fill="white"/>
<defs>
<linearGradient id="paint0_linear" x1="243.606" y1="13.2709" x2="27.8407" y2="232.522" gradientUnits="userSpaceOnUse">
<stop stop-color="#870000"/>
<stop offset="1"/>
</linearGradient>
</defs>
</svg>
